<?xml version="1.0" encoding="UTF-8"?>
<svg width="176px" height="57px" viewBox="0 0 176 57" version="1.1" xmlns="http://www.w3.org/2000/svg" xmlns:xlink="http://www.w3.org/1999/xlink">
    <!-- Generator: Sketch 48.2 (47327) - http://www.bohemiancoding.com/sketch -->
    <title>volders-logo-negative</title>
    <desc>Created with Sketch.</desc>
    <defs></defs>
    <g id="Page-1" stroke="none" stroke-width="1" fill="none" fill-rule="evenodd">
        <g id="volders-logo-negative" fill="#FFFFFF" fill-rule="nonzero">
            <path d="M21,8 L36.57,8 C38.4643367,8 40,9.53566331 40,11.43 L40,44.568 C40.0000003,46.4626605 38.4646602,47.9988959 36.57,48 L21,48 L21,39.5664399 C21.8148356,39.3183506 22.5212081,38.7713469 22.963,38.015 L32.669,21.448 C33.2881182,20.3864149 33.2927473,19.0749092 32.6811385,18.0089801 C32.0695297,16.943051 30.9349299,16.285212 29.706,16.284 C28.486687,16.2839133 27.3589888,16.9311406 26.744,17.984 L21,27.7872977 L21,8 Z" id="Combined-Shape"></path>
            <path d="M16.128,0.0286186276 C15.634,0.0916186276 15.178,0.258618628 14.781,0.500618628 L1.64600003,8.52861863 C0.623677117,9.15118048 -0.000158143616,10.2616527 3.00715872e-08,11.4586186 L3.00715872e-08,44.5946186 C3.00715872e-08,45.8346186 0.66000003,46.9226186 1.64500003,47.5246186 L14.781,55.5516186 C15.8406603,56.199404 17.1677179,56.2237576 18.2504324,55.6152882 C19.333147,55.0068188 20.0023564,53.860593 20,52.6186186 L20,39.7416186 C18.780687,39.7417053 17.6529888,39.0944781 17.038,38.0416186 L7.33200003,21.4756186 C6.70197238,20.4165915 6.68806312,19.1010844 7.29555758,18.0289726 C7.90305205,16.9568608 9.03869225,16.2927269 10.2709499,16.2889331 C11.5032075,16.2851392 12.6429155,16.9422678 13.257,18.0106186 L20,29.5216186 L20,3.43461863 C20.001324,2.44707514 19.576939,1.50687693 18.835447,0.854624358 C18.0939549,0.202371786 17.1073106,-0.0986401649 16.128,0.0286186276" id="Shape"></path>
            <g id="Group" transform="translate(56.000000, 15.000000)">
                <path d="M42.245,24.37 L44.867,24.37 L44.867,0.13 L42.245,0.13 L42.245,24.37 Z M64.006,16.494 C63.778,17.977 63.074,19.327 62.026,20.296 C60.996,21.246 59.746,21.748 58.411,21.748 C55.281,21.748 52.736,18.908 52.736,15.416 C52.736,11.924 55.282,9.084 58.412,9.084 C61.542,9.084 64.089,11.924 64.09,15.414 L64.09,15.417 C64.09,15.779 64.062,16.141 64.008,16.494 L64.006,16.494 Z M66.713,15.416 L66.713,0.13 L64.091,0.13 L64.091,8.884 C62.606,7.382 60.611,6.461 58.414,6.461 C53.832,6.461 50.116,10.471 50.116,15.417 C50.116,20.363 53.832,24.372 58.416,24.372 C60.611,24.372 62.606,23.452 64.092,21.95 L64.092,24.373 L66.714,24.373 L66.714,15.42 L66.713,15.416 Z M80.302,9.084 C82.958,9.084 85.192,11.128 85.809,13.88 L74.795,13.88 C75.412,11.128 77.645,9.084 80.301,9.084 L80.302,9.084 Z M80.301,6.461 C75.718,6.461 72.001,10.471 72.001,15.417 C72.001,15.785 72.023,16.147 72.063,16.504 C72.1634006,17.4062957 72.3934362,18.2893898 72.746,19.126 C74.053,22.221 76.944,24.372 80.301,24.372 C83.659,24.372 86.551,22.222 87.857,19.127 L84.897,19.127 C84.617,19.557 84.289,19.953 83.915,20.297 C82.885,21.247 81.635,21.75 80.301,21.75 C78.413,21.75 76.737,20.715 75.705,19.127 C75.1920821,18.3329767 74.8529882,17.4394047 74.71,16.505 L88.602,16.505 L88.602,15.418 C88.602,10.472 84.886,6.463 80.302,6.463 L80.301,6.461 Z M102.153,6.46 C99.957,6.46 97.961,7.382 96.477,8.884 L96.477,6.46 L93.854,6.46 L93.854,24.37 L96.477,24.37 L96.477,15.416 C96.477,11.924 99.023,9.084 102.153,9.084 C102.605,9.084 103.043,9.144 103.463,9.256 L103.463,6.573 C103.030292,6.49864154 102.59205,6.46117352 102.153,6.461 L102.153,6.46 Z M15.286,6.46 L9.07,21.03 L2.85,6.46 L0,6.46 L7.643,24.37 L10.495,24.37 L18.138,6.46 L15.286,6.46 Z M28.7,6.46 C24.117,6.46 20.4,10.47 20.4,15.416 C20.4,20.362 24.117,24.371 28.7,24.371 C32.818,24.371 36.235,21.137 36.887,16.894 C36.961,16.414 36.999,15.92 36.999,15.417 C36.999,10.471 33.283,6.462 28.699,6.462 L28.7,6.46 Z M28.699,9.086 C31.829,9.086 34.376,11.926 34.376,15.418 C34.376,15.78 34.348,16.143 34.294,16.496 C34.066,17.979 33.362,19.329 32.314,20.298 C31.284,21.248 30.034,21.75 28.699,21.75 C25.569,21.75 23.023,18.91 23.023,15.418 C23.023,11.926 25.569,9.086 28.699,9.086 Z M117.67,7.554 C116.473,6.829 115.103,6.461 113.598,6.461 C112.348,6.461 111.071,6.885 110.096,7.623 C108.944,8.495 108.291,9.723 108.256,11.085 L108.256,11.331 C108.306,13.584 109.86,15.236 112.881,16.246 C113.261,16.372 113.641,16.48 114.011,16.584 C114.914,16.838 115.767,17.078 116.389,17.534 C116.997,17.98 117.319,18.474 117.369,19.044 C117.435,19.751 117.069,20.392 116.882,20.59 C116.482,21.016 115.534,21.728 113.675,21.748 C112.327,21.731 111.089,21.204 110.113,20.336 L108.259,22.191 C109.674,23.496 111.499,24.307 113.499,24.368 C113.531,24.371 113.564,24.372 113.599,24.372 L113.742,24.372 C113.769,24.372 113.797,24.372 113.824,24.37 C115.324,24.336 117.324,23.948 118.794,22.39 C119.431,21.71 120.126,20.365 119.984,18.804 C119.898,17.881 119.474,16.544 117.94,15.42 C116.935,14.683 115.76,14.352 114.724,14.06 C114.368,13.96 114.032,13.866 113.714,13.76 C111.164,12.907 110.86,11.92 110.88,11.153 C110.91,9.918 112.312,9.087 113.6,9.087 C114.633,9.087 115.52,9.32 116.31,9.799 C116.61,9.981 116.89,10.199 117.16,10.437 L119.017,8.58 C118.603126,8.19549529 118.152269,7.85283029 117.671,7.557 L117.67,7.554 Z" id="Shape"></path>
            </g>
        </g>
    </g>
</svg>